{
  "extensionName": { "message": "Corporative Contacts" },
  "extensionDescription": { "message": "Provides more powerful addressbook features." },

  "fieldForNameField1": { "message": "FirstName" },
  "fieldForNameField2": { "message": "LastName" },
  "displayAddressFormat": { "message": "bottomup" },
  "defaultOrganizationLabels": { "message": "Organization;Department;Group" },
  "defaultUncategorizedLabel": { "message": "Uncategorized" },

  "mapProvider_OpenStreetMap_label": { "message": "OpenStreetMap" },
  "mapProvider_OpenStreetMap_url":   { "message": "https://www.openstreetmap.org/search?query=%S" },
  "mapProvider_GoogleMap_label":     { "message": "Google Map" },
  "mapProvider_GoogleMap_url":       { "message": "https://www.google.com/maps?q=" },
  "mapProvider_BingMap_label":       { "message": "Bing Map" },
  "mapProvider_BingMap_url":         { "message": "https://www.bing.com/maps/?q=" },

  "contact_field_NameField1": { "message": "First" },
  "contact_field_NameField2": { "message": "Last" },
  "contact_field_PhoneticNameField1": { "message": "Phonetic" },
  "contact_field_PhoneticNameField2": { "message": "Phonetic" },
  "contact_field_visibleDisplayName": { "message": "Display" },
  "contact_field_SpouseName": { "message": "Spourse Name" },
  "contact_field_FamilyName": { "message": "Family Name" },
  "contact_field_NickName": { "message": "Nickname" },
  "contact_field_PrimaryEmail": { "message": "Email" },
  "contact_field_SecondEmail": { "message": "Additional Email" },
  "contact_field_ChatName": { "message": "Chat Name" },
  "contact_field_PreferMailFormat": { "message": "Prefers to receive messages formatted as" },
  "contact_field_PreferMailFormat_plainText": { "message": "Plain Text" },
  "contact_field_PreferMailFormat_html": { "message": "HTML" },
  "contact_field_PreferMailFormat_unknown": { "message": "Unknown" },
  "contact_field_WorkPhone": { "message": "Work" },
  "contact_field_HomePhone": { "message": "Home" },
  "contact_field_FaxNumber": { "message": "Fax" },
  "contact_field_PagerNumber": { "message": "Pager" },
  "contact_field_CellularNumber": { "message": "Mobile" },
  "contact_field_Home": { "message": "Private" },
  "contact_field_HomeAddress": { "message": "Address" },
  "contact_field_HomeAddress2": { "message": "" },
  "contact_field_HomeCity": { "message": "City" },
  "contact_field_HomeState": { "message": "State/Province" },
  "contact_field_HomeZipCode": { "message": "ZIP/Postal Code" },
  "contact_field_HomeCountry": { "message": "Country" },
  "contact_field_WebPage2": { "message": "Web Page" },
  "contact_field_Age": { "message": "Age" },
  "contact_field_Work": { "message": "Work" },
  "contact_field_JobTitle": { "message": "Title" },
  "contact_field_Department": { "message": "Department" },
  "contact_field_Company": { "message": "Organization" },
  "contact_field_WorkAddress": { "message": "Address" },
  "contact_field_WorkAddress2": { "message": "" },
  "contact_field_WorkCity": { "message": "City" },
  "contact_field_WorkState": { "message": "State/Province" },
  "contact_field_WorkZipCode": { "message": "ZIP/Postal Code" },
  "contact_field_WorkCountry": { "message": "Country" },
  "contact_field_WebPage1": { "message": "Web Page" },
  "contact_field_Other": { "message": "Other" },
  "contact_field_Custom1": { "message": "Custom 1" },
  "contact_field_Custom2": { "message": "Custom 2" },
  "contact_field_Custom3": { "message": "Custom 3" },
  "contact_field_Custom4": { "message": "Custom 4" },
  "contact_field_Notes": { "message": "Notes" },
  "contact_field_Chat": { "message": "Chat" },
  "contact_field__GoogleTalk": { "message": "Google Chat" },
  "contact_field__AimScreenName": { "message": "AIM" },
  "contact_field__Yahoo": { "message": "Yahoo!" },
  "contact_field__Skype": { "message": "Skype" },
  "contact_field__QQ": { "message": "QQ" },
  "contact_field__MSN": { "message": "MSN" },
  "contact_field__ICQ": { "message": "ICQ" },
  "contact_field__JabberId": { "message": "Jabber ID" },
  "contact_field__IRC": { "message": "IRC Nick" },
  "contact_field_Photo": { "message": "Photo" },

  "contact_field_namePrefix": { "message": "Name Prefix" },
  "contact_field_nameSuffix": { "message": "Name Suffix" },
  "contact_field_birthDay": { "message": "Birthday" },
  "contact_field_birthPlace": { "message": "Birth Place" },
  "contact_field_deathDay": { "message": "Death Day" },
  "contact_field_deathPlace": { "message": "Death Place" },
  "contact_field_anniversaryDay": { "message": "Anniversary" },
  "contact_field_gender": { "message": "Gender" },
  "contact_field_gender_f": { "message": "Female" },
  "contact_field_gender_m": { "message": "Male" },
  "contact_field_gender_n": { "message": "None" },
  "contact_field_gender_o": { "message": "Other" },
  "contact_field_gender_u": { "message": "Unknown" },
  "contact_field_organizations": { "message": "Organization Details" },
  "contact_field_categories": { "message": "Categories" },
  "contact_field_role": { "message": "Role" },
  "contact_field_displayWorkAddress": { "message": "Work" },
  "contact_field_displayHomeAddress": { "message": "Home" },
  "contact_field_url_work": { "message": "Work" },
  "contact_field_url_home": { "message": "Home" },

  "browserAction_label": { "message": "Contacts" },


  "ui_items_title": { "message": "Contacts" },
  "ui_items_toolbar_syncAllAddressBooksButton_label": { "message": "Sync" },
  "ui_items_toolbar_startCompositionButton_label": { "message": "Create" },
  "ui_items_toolbar_optionsButton_label": { "message": "Options" },
  "ui_items_toolbar_search_placeholder": { "message": "Search…" },
  "ui_items_toolbar_createMailingListButton_label": { "message": "New List" },
  "ui_items_toolbar_showItemButton_label": { "message": "Show" },
  "ui_items_toolbar_deleteItemsButton_label": { "message": "Delete" },
  "ui_items_toolbar_addressBooksFilter_all":    { "message": "All Adderss Books" },
  "ui_items_toolbar_addressBooksFilter_local":  { "message": "Local Adderss Books" },
  "ui_items_toolbar_addressBooksFilter_remote": { "message": "Remote Adderss Books" },

  "ui_mainMenu_addressBooks_label":               { "message": "&Address Books" },
  "ui_mainMenu_addressBook_create_label":         { "message": "&New Address Book" },
  "ui_mainMenu_addressBook_edit_label":           { "message": "&Edit Address Book" },
  "ui_mainMenu_addressBook_remove_label":         { "message": "&Delete Address Book" },
  "ui_mainMenu_addressBook_syncAll_label":        { "message": "&Sync All Address Books" },
  "ui_mainMenu_addressBook_print_label":          { "message": "&Print Preview" },
  "ui_mainMenu_addressBook_importFromFile_label": { "message": "&Import Contacts from File" },

  "ui_mainMenu_contacts_label":                       { "message": "&Contacts" },
  "ui_mainMenu_contacts_create_label":                { "message": "&New Contact" },
  "ui_mainMenu_contacts_createList_label":            { "message": "New &List" },
  "ui_mainMenu_contacts_edit_label":                  { "message": "&Edit" },
  "ui_mainMenu_contacts_remove_label":                { "message": "&Delete" },
  "ui_mainMenu_contacts_categories_label":            { "message": "C&ategories" },
  "ui_mainMenu_contacts_newCategory_label":           { "message": "&New Category" },
  "ui_mainMenu_contacts_startCompositionAsTo_label":  { "message": "Create Ne&w Message" },
  "ui_mainMenu_contacts_startCompositionAsCc_label":  { "message": "Create New &Message (Cc)" },
  "ui_mainMenu_contacts_startCompositionAsBcc_label": { "message": "Create New Message (&Bcc)" },
  "ui_mainMenu_contacts_shareItems_label":            { "message": "&Share Contacts with Message" },
  "ui_mainMenu_contacts_startChat_label":             { "message": "Start C&hat" },
  "ui_mainMenu_contacts_findMessages_label":          { "message": "Find Messages (&Q)" },
  "ui_mainMenu_contacts_openMap_label":               { "message": "Show &Location in Map" },
  "ui_mainMenu_contacts_openUrl_label":               { "message": "&Open URL" },
  "ui_mainMenu_contacts_cut_label":                   { "message": "Cu&t" },
  "ui_mainMenu_contacts_copy_label":                  { "message": "&Copy" },
  "ui_mainMenu_contacts_paste_label":                 { "message": "&Paste" },
  "ui_mainMenu_contacts_pasteEntry_label":            { "message": "Paste as Entr&y" },
  "ui_mainMenu_contacts_print_label":                 { "message": "P&rint Preview" },
  "ui_mainMenu_contacts_duplicate_label":             { "message": "D&uplicate" },
  "ui_mainMenu_contacts_merge_label":                 { "message": "Mer&ge" },

  "ui_mainMenu_tools_label":         { "message": "&Tools" },
  "ui_mainMenu_tools_openItemsInWindow_label": { "message": "&Switch to Window" },
  "ui_mainMenu_tools_openItemsInTab_label":    { "message": "&Switch to Tab" },
  "ui_mainMenu_tools_options_label": { "message": "&Options" },

  "ui_startCompositionMenu_asTo_label":  { "message": "Create Ne&w Message" },
  "ui_startCompositionMenu_asCc_label":  { "message": "Create New &Message (Cc)" },
  "ui_startCompositionMenu_asBcc_label": { "message": "Create New Message (&Bcc)" },

  "ui_items_column_index": { "message": "No." },
  "ui_items_column_selected": { "message": "Select" },
  "ui_items_column_icon": { "message": "Icon" },

  "ui_items_tabs_general_label": { "message": "General" },
  "ui_items_tabs_mailPopularity_label": { "message": "Mail Popularity" },
  "ui_items_tabs_technical_label": { "message": "Technical" },
  "ui_items_tabs_vCard_label": { "message": "vCard" },

  "ui_items_selectedItems_startCompositionButton_label": { "message": "Compose New Message" },
  "ui_items_selectedItems_startChatButton_label": { "message": "Start Chat" },
  "ui_items_selectedItems_clearButton_label": { "message": "Clear" },

  "ui_context_addressBook_create_label":         { "message": "&New Address Book" },
  "ui_context_addressBook_edit_label":           { "message": "&Edit Address Book" },
  "ui_context_addressBook_remove_label":         { "message": "&Delete Address Book" },
  "ui_context_addressBook_syncAll_label":        { "message": "&Sync All Address Books" },
  "ui_context_addressBook_print_label":          { "message": "&Print Preview" },
  "ui_context_addressBook_importFromFile_label": { "message": "&Import Contacts from File" },

  "ui_context_items_create_label":                { "message": "&New Contact" },
  "ui_context_items_createList_label":            { "message": "New &List" },
  "ui_context_items_edit_label":                  { "message": "&Edit" },
  "ui_context_items_remove_label":                { "message": "&Delete" },
  "ui_context_items_categories_label":            { "message": "C&ategories" },
  "ui_context_items_newCategory_label":           { "message": "&New Category" },
  "ui_context_items_startCompositionAsTo_label":  { "message": "Create Ne&w Message" },
  "ui_context_items_startCompositionAsCc_label":  { "message": "Create New &Message (Cc)" },
  "ui_context_items_startCompositionAsBcc_label": { "message": "Create New Message (&Bcc)" },
  "ui_context_items_shareItems_label":            { "message": "&Share Contacts with Message" },
  "ui_context_items_startChat_label":             { "message": "Start C&hat" },
  "ui_context_items_findMessages_label":          { "message": "Find Messages (&Q)" },
  "ui_context_items_openMap_label":               { "message": "Show &Location in Map" },
  "ui_context_items_openUrl_label":               { "message": "&Open URL" },
  "ui_context_items_cut_label":                   { "message": "Cu&t" },
  "ui_context_items_copy_label":                  { "message": "&Copy" },
  "ui_context_items_paste_label":                 { "message": "&Paste" },
  "ui_context_items_pasteEntry_label":            { "message": "Paste as Entr&y" },
  "ui_context_items_print_label":                 { "message": "P&rint Preview" },
  "ui_context_items_duplicate_label":             { "message": "D&uplicate" },
  "ui_context_items_merge_label":                 { "message": "Mer&ge" },

  "ui_headerContext_reset_label": { "message": "Reset to Default" },


  "import_chooseEncoding_message": { "message": "Please choose the character encoding of the file contents:" },
  "import_chooseEncoding_category_The_Encoding": { "message": "General" },
  "import_chooseEncoding_category_Legacy_single_byte_encodings": { "message": "Legacy" },
  "import_chooseEncoding_category_Legacy_multi_byte_Chinese__simplified__encodings": { "message": "Simplified Chinese" },
  "import_chooseEncoding_category_Legacy_multi_byte_Chinese__traditional__encodings": { "message": "Traditional Chinese" },
  "import_chooseEncoding_category_Legacy_multi_byte_Japanese_encodings": { "message": "Japanese" },
  "import_chooseEncoding_category_Legacy_multi_byte_Korean_encodings": { "message": "Korean" },
  "import_chooseEncoding_category_Legacy_miscellaneous encodings": { "message": "Miscellaneous" },
  "import_chooseEncoding_accept": { "message": "OK" },
  "import_chooseEncoding_cancel": { "message": "Cancel" },

  "import_confirmEncoding_message": { "message": "Are you sure to import contacts with following contents?:" },
  "import_confirmEncoding_accept": { "message": "Import" },
  "import_confirmEncoding_rechoose": { "message": "Choose Character Encoding" },
  "import_confirmEncoding_cancel": { "message": "Cancel" },

  "import_confirmToUnifyExistingAddressBook_message": { "message": "An address book with same name already exists. Are you sure to merge imported contents?" },
  "import_confirmToUnifyExistingAddressBook_accept": { "message": "Merge" },
  "import_confirmToUnifyExistingAddressBook_cancel": { "message": "Import to New Address Book" },

  "import_propmptPassword_message": { "message": "This file contains encrypted data. Plese type the password:" },
  "import_propmptPassword_retryMessage": { "message": "Incorrect password. Please input correct password:" },
  "import_propmptPassword_accept": { "message": "OK" },
  "import_propmptPassword_cancel": { "message": "Cancel" },

  "csv_field_FirstName":      { "message": "First Name" },
  "csv_field_LastName":       { "message": "Last Name" },
  "csv_field_DisplayName":    { "message": "Display Name" },
  "csv_field_NickName":       { "message": "Nickname" },
  "csv_field_PrimaryEmail":   { "message": "Primary Email" },
  "csv_field_SecondEmail":    { "message": "Secondary Email" },
  "csv_field_ChatName":       { "message": "Screen Name" },
  "csv_field_WorkPhone":      { "message": "Work Phone" },
  "csv_field_HomePhone":      { "message": "Home Phone" },
  "csv_field_FaxNumber":      { "message": "Fax Number" },
  "csv_field_PagerNumber":    { "message": "Pager Number" },
  "csv_field_CellularNumber": { "message": "Mobile Number" },
  "csv_field_HomeAddress":    { "message": "Home Address" },
  "csv_field_HomeAddress2":   { "message": "Home Address 2" },
  "csv_field_HomeCity":       { "message": "Home City" },
  "csv_field_HomeState":      { "message": "Home State" },
  "csv_field_HomeZipCode":    { "message": "Home ZipCode" },
  "csv_field_HomeCountry":    { "message": "Home Country" },
  "csv_field_WorkAddress":    { "message": "Work Address" },
  "csv_field_WorkAddress2":   { "message": "Work Address 2" },
  "csv_field_WorkCity":       { "message": "Work City" },
  "csv_field_WorkState":      { "message": "Work State" },
  "csv_field_WorkZipCode":    { "message": "Work ZipCode" },
  "csv_field_WorkCountry":    { "message": "Work Country" },
  "csv_field_JobTitle":       { "message": "Job Title" },
  "csv_field_Department":     { "message": "Department" },
  "csv_field_Company":        { "message": "Organization" },
  "csv_field_WebPage1":       { "message": "Web Page 1" },
  "csv_field_WebPage2":       { "message": "Web Page 2" },
  "csv_field_BirthYear":      { "message": "Birth Year" },
  "csv_field_BirthMonth":     { "message": "Birth Month" },
  "csv_field_BirthDay":       { "message": "Birth Day" },
  "csv_field_Custom1":        { "message": "Custom 1" },
  "csv_field_Custom2":        { "message": "Custom 2" },
  "csv_field_Custom3":        { "message": "Custom 3" },
  "csv_field_Custom4":        { "message": "Custom 4" },
  "csv_field_Notes":          { "message": "Notes" },

  "confirmToDeleteThisAddressbook_message": { "message": "Are you sure you want to delete this address book and all of its contacts?\n• $NAME$",
    "placeholders": {
      "name": { "content": "$1", "example": "address book" }
    }},
  "confirmToDeleteThisAddressbook_accept": { "message": "Delete" },
  "confirmToDeleteThisAddressbook_cancel": { "message": "Cancel" },

  "promptNewCategoryName_message": { "message": "Name of New Category:" },
  "promptNewCategoryName_accept": { "message": "Create" },
  "promptNewCategoryName_cancel": { "message": "Cancel" },

  "promptCardDAVAuthInfo_message":             { "message": "Prease input authentication information for the address book \"$NAME$\":",
    "placeholders": {
      "name": { "content": "$1", "example": "Address Book" }
    }},
  "promptCardDAVAuthInfo_userNamePlaceholder": { "message": "User Name" },
  "promptCardDAVAuthInfo_passwordPlaceholder": { "message": "Password" },
  "promptCardDAVAuthInfo_suppressPrompt":      { "message": "Never ask me again for this address book until restarted" },
  "promptCardDAVAuthInfo_accept":              { "message": "OK" },
  "promptCardDAVAuthInfo_cancel":              { "message": "Cancel" },


  "ui_addressBook_title": { "message": "Address Book: $NAME$",
    "placeholders": {
      "name": { "content": "$1", "example": "address book" }
    }},
  "ui_new_addressBook_title": { "message": "New Address Book" },

  "ui_addressBook_tabs_general_label": { "message": "General" },
  "ui_addressBook_tabs_displayName_label": { "message": "Display Name" },
  "ui_addressBook_tabs_sync_label": { "message": "Synchronization" },

  "ui_addressBook_color_label": { "message": "Color" },
  "ui_addressBook_name_label": { "message": "Name" },
  "ui_addressBook_syncType_label": { "message": "Type" },
  "ui_addressBook_syncType_local": { "message": "Local" },
  "ui_addressBook_syncType_cardDAV": { "message": "CardDAV" },
  "ui_addressBook_cardDAVURL_label": { "message": "URL" },
  "ui_addressBook_cardDAVUserName_label": { "message": "User Name" },
  "ui_addressBook_cardDAVPassword_label": { "message": "Password" },
  "ui_addressBook_cardDAVAuthMethod_label": { "message": "Auth Method" },
  "ui_addressBook_cardDAVAuthMethod_auto": { "message": "Auto Detect" },
  "ui_addressBook_cardDAVAuthMethod_digest": { "message": "Digest Auth" },
  "ui_addressBook_cardDAVAuthMethod_basic": { "message": "Basic Auth" },
  "ui_addressBook_readOnly_label": { "message": "Read Only" },
  "ui_addressBook_encrypted_label": { "message": "Encrypt contact informations" },

  "ui_addressBook_customDisplayNameFormat_label": { "message": "Display name format saved to Thunderbird's address book" },
  "ui_addressBook_customDisplayNameFormat_description": { "message": "This format affects to display name of contacts shown in Thunderbird's built-in UI: auto-complete, contacts sidebar, and so on. You may put placeholders like `{{field name}}` for any contact field. Available fields are:" },

  "ui_addressBook_periodicalSync_label": { "message": "Sycnronize with the server periodically" },
  "ui_addressBook_periodicalSyncIntervalMinutes_label_before": { "message": "Synchronization interval: Every " },
  "ui_addressBook_periodicalSyncIntervalMinutes_label_after": { "message": "minutes" },
  "ui_addressBook_syncNow_label": { "message": "Synchronize Now" },
  "ui_addressBook_syncNowForce_label": { "message": "Destruct Local Status and Synchronize Now " },

  "ui_addressBook_saveButton_label": { "message": "Save" },
  "ui_addressBook_closeButton_label": { "message": "Close" },
  "ui_addressBook_cancelButton_label": { "message": "Cancel" },


  "ui_item_addressBook_caption": { "message": "Address Book" },
  "ui_item_categories_caption": { "message": "Categories" },
  "ui_item_newCategoryPlaceholder": { "message": "Add New Category" },

  "ui_contact_title": { "message": "Contact: $NAME$",
    "placeholders": {
      "name": { "content": "$1", "example": "contact" }
    }},
  "ui_new_contact_title": { "message": "New Contact" },

  "ui_contact_tabs_general_label": { "message": "General" },
  "ui_contact_tabs_notes_label": { "message": "Notes" },
  "ui_contact_tabs_technical_label": { "message": "Technical" },

  "ui_contact_addressBook_caption": { "message": "Address Book" },
  "ui_contact_categories_caption": { "message": "Categories" },
  "ui_contact_displayName_caption": { "message": "Display Name" },
  "ui_contact_personalInformation_caption": { "message": "Personal Information" },
  "ui_contact_organizationInformation_caption": { "message": "Professional Information" },
  "ui_contact_chooseImageButton_label": { "message": "Choose Image…" },
  "ui_contact_startChatButton_label": { "message": "Start Chat" },
  "ui_contact_email_caption": { "message": "Email Addresses" },
  "ui_contact_phone_caption": { "message": "Telephone Numbers" },
  "ui_contact_address_caption": { "message": "Addresses" },
  "ui_contact_impp_caption": { "message": "Internet Communications" },
  "ui_contact_url_caption": { "message": "URLs" },

  "ui_contact_misc_caption": { "message": "Miscellaneous" },
  "ui_contact_mailer_label": { "message": "Mailer" },
  "ui_contact_geo_label": { "message": "Geo Location" },
  "ui_contact_sortString_label": { "message": "Sort String" },
  "ui_contact_class1_label": { "message": "Class" },
  "ui_contact_tz_label": { "message": "Time Zone" },
  "ui_contact_agent_label": { "message": "User Agent" },
  "ui_contact_key_label": { "message": "Key" },
  "ui_contact_PhotoURI_label": { "message": "Photo" },
  "ui_contact_logoSourceURI_label": { "message": "Logo" },
  "ui_contact_soundSourceURI_label": { "message": "Sound" },
  "ui_contact_technical_caption": { "message": "Technical" },
  "ui_contact_dirPrefId_label": { "message": "Address Book ID" },
  "ui_contact_version_label": { "message": "Version" },
  "ui_contact_prodid_label": { "message": "Prodid" },
  "ui_contact_uid_label": { "message": "Contact ID" },
  "ui_contact_carduri_label": { "message": "Card URL" },
  "ui_contact_rev_label": { "message": "Last Updated" },
  "ui_contact_etag_label": { "message": "Etag" },
  "ui_contact_other_caption": { "message": "Other" },

  "ui_contact_saveButton_label": { "message": "Save" },
  "ui_contact_closeButton_label": { "message": "Close" },
  "ui_contact_cancelButton_label": { "message": "Cancel" },


  "ui_mailingList_title": { "message": "Mailing List: $NAME$",
    "placeholders": {
      "name": { "content": "$1", "example": "list" }
    }},
  "ui_new_mailingList_title": { "message": "New Mailing List" },

  "ui_mailingList_tabs_general_label": { "message": "General" },
  "ui_mailingList_tabs_notes_label": { "message": "Notes" },

  "ui_mailingList_startChatButton_label": { "message": "Start Chat" },
  "ui_mailingList_contacts_caption": { "message": "Contacts" },
  "ui_mailingList_contacts_searchField_placeholder": { "message": "Search…" },
  "ui_mailingList_contacts_rightArrow": { "message": "⇒" },

  "ui_mailingList_saveButton_label": { "message": "Save" },
  "ui_mailingList_closeButton_label": { "message": "Close" },
  "ui_mailingList_cancelButton_label": { "message": "Cancel" },


  "ui_mergeContacts_title": { "message": "Merge Contacts" },
  "ui_mergeContacts_message": { "message": "Please choose fields expected to be saved to the new contact." },
  "ui_mergeContacts_field_displayWorkAddress": { "message": "Work Address" },
  "ui_mergeContacts_field_displayHomeAddress": { "message": "Home Address" },
  "ui_mergeContacts_previewButton_label": { "message": "Preview" },
  "ui_mergeContacts_createButton_label": { "message": "Create" },
  "ui_mergeContacts_replaceButton_label": { "message": "Create and Replace with original contacts" },
  "ui_mergeContacts_cancelButton_label": { "message": "Cancel" },


  "ui_printPreview_title": { "message": "Print Preview of Contacts" },
  "ui_printPreview_options_caption": { "message": "Print Options" },
  "ui_printPreview_options_headings_label": { "message": "Show Headings" },
  "ui_printPreview_options_fieldNames_label": { "message": "Show Field Names" },
  "ui_printPreview_fields_caption": { "message": "Fields to print" },
  "ui_printPreview_printButton_label": { "message": "Print" },
  "ui_printPreview_closeButton_label": { "message": "Close" },
  "ui_printContacts_documentTitle_addressBook": { "message": "Contacts of $NAME$",
    "placeholders": {
      "name": { "content": "$1", "example": "public" }
    }},
  "ui_printContacts_documentTitle_default": { "message": "$COUNT$ Contacts",
    "placeholders": {
      "count": { "content": "$1", "example": "10" }
    }},


  "config_title": { "message": "Corporative Contacts Configuration" },


  "config_general_caption": { "message": "General" },

  "config_showToolbarButtons_caption":          { "message": "Available Toolbar Items" },
  "config_showToolbarSearchField_label":        { "message": "Search Field" },
  "config_showToolbarAddressBooksFilter_label": { "message": "Address Books Filder" },

  "config_itemsTab_caption":               { "message": "Available Tabs in the Details Pane of the Contacts List" },
  "config_itemsTabTechnicalEnabled_label": { "message": "Technical" },
  "config_itemsTabVCardEnabled_label":     { "message": "vCard" },

  "config_mapProvider_caption": { "message": "Map Service for \"Show Location in Map\" commands" },

  "config_openUIInWindow_caption":     { "message": "Open Contacts List in" },
  "config_openUIInWindow_true_label":  { "message": "Window" },
  "config_openUIInWindow_false_label": { "message": "Thunderbird Tab" },

  "config_openInDefaultBrowser_caption":     { "message": "Open Link with" },
  "config_openInDefaultBrowser_true_label":  { "message": "The Default Browser of the Platform" },
  "config_openInDefaultBrowser_false_label": { "message": "Thunderbird Tab" },

  "config_editItemOnDblClick_caption":     { "message": "Double Click on a Contact to" },
  "config_editItemOnDblClick_true_label":  { "message": "Edit the Contact" },
  "config_editItemOnDblClick_false_label": { "message": "Start Composition of a Message to the Contact" },


  "config_customFields_caption": { "message": "Custom Fields" },

  "config_customFields_up":              { "message": "Up" },
  "config_customFields_down":            { "message": "Down" },
  "config_customFields_remove":          { "message": "Remove" },
  "config_customFields_add":             { "message": "Add New Item" },
  "config_customFields_restoreDefaults": { "message": "Restore Default Items" },

  "config_customPersonalInformationFields_caption":          { "message": "Personal Information" },
  "config_customPersonalInformationFields_title_label":      { "message": "display name" },
  "config_customPersonalInformationFields_title_field":      { "message": "vCard field name" },
  "config_customPersonalInformationFields_title_bindTo":     { "message": "(optional) contact field name" },
  "config_customOrganizationInformationFields_caption":      { "message": "Professional Information" },
  "config_customOrganizationInformationFields_title_label":  { "message": "display name" },
  "config_customOrganizationInformationFields_title_field":  { "message": "vCard field name" },
  "config_customOrganizationInformationFields_title_bindTo": { "message": "(optional) contact field name" },
  "config_customChatProviders_caption":                      { "message": "Chat Providers" },
  "config_customChatProviders_title_label":                  { "message": "display name" },
  "config_customChatProviders_title_field":                  { "message": "vCard field name" },
  "config_customChatProviders_title_linkMatcher":            { "message": "link matcher regexp" },
  "config_customChatProviders_title_linkPrefix":             { "message": "URL prefix" },
  "config_customChatProviders_title_contactsSeparator":      { "message": "contacts separator character" },


  "config_sync_caption": { "message": "Sync" },

  "config_syncOnStartup_label":             { "message": "Synchronize Address Books on Startup" },
  "config_syncOnStartupDelay_label_before": { "message": "Wait for " },
  "config_syncOnStartupDelay_label_after":  { "message": " msec until initial synchronization" },


  "config_debug_caption": { "message": "Development" },

  "config_debug_label": { "message": "Debug mode" },
  "config_all_caption": { "message": "All Configs" }
}
